-------------------------------------------------------------------------------
Test set: uvsq.Forme.AppTest
-------------------------------------------------------------------------------
Tests run: 1, Failures: 0, Errors: 0, Skipped: 0, Time elapsed: 0.019 sec - in uvsq.Forme.AppTest
